{
  "main.css": "/static/css/main.2a2c7d2b.chunk.css",
  "main.js": "/static/js/main.4e13ff08.chunk.js",
  "main.js.map": "/static/js/main.4e13ff08.chunk.js.map",
  "runtime~main.js": "/static/js/runtime~main.a8a9905a.js",
  "runtime~main.js.map": "/static/js/runtime~main.a8a9905a.js.map",
  "static/css/2.911bd400.chunk.css": "/static/css/2.911bd400.chunk.css",
  "static/js/2.a8e04c84.chunk.js": "/static/js/2.a8e04c84.chunk.js",
  "static/js/2.a8e04c84.chunk.js.map": "/static/js/2.a8e04c84.chunk.js.map",
  "index.html": "/index.html",
  "precache-manifest.7069bb51406a5922123df706c4fe7f19.js": "/precache-manifest.7069bb51406a5922123df706c4fe7f19.js",
  "service-worker.js": "/service-worker.js",
  "static/css/2.911bd400.chunk.css.map": "/static/css/2.911bd400.chunk.css.map",
  "static/css/main.2a2c7d2b.chunk.css.map": "/static/css/main.2a2c7d2b.chunk.css.map",
  "static/media/custom.css": "/static/media/sprite_char.88f68fdf.png"
}